^C:\USERS\210389\ONEDRIVE - 東北電子専門学校\TGS作品\MYGAMEENGINE\ENGINE\IMAGE.CPP|C:\USERS\210389\ONEDRIVE - 東北電子専門学校\TGS作品\MYGAMEENGINE\ENGINE\SPRITE.CPP|C:\USERS\210389\ONEDRIVE - 東北電子専門学校\TGS作品\MYGAMEENGINE\ENGINE\TEXT.CPP
C:\USERS\210389\ONEDRIVE - 東北電子専門学校\TGS作品\MYGAMEENGINE\X64\DEBUG\VC142.PDB
C:\USERS\210389\ONEDRIVE - 東北電子専門学校\TGS作品\MYGAMEENGINE\X64\DEBUG\VC142.IDB
^C:\USERS\210389\ONEDRIVE - 東北電子専門学校\TGS作品\GAME\MYGAMEENGINE\COLLIDER.CPP|C:\USERS\210389\ONEDRIVE - 東北電子専門学校\TGS作品\GAME\MYGAMEENGINE\ENEMY.CPP|C:\USERS\210389\ONEDRIVE - 東北電子専門学校\TGS作品\GAME\MYGAMEENGINE\ENGINE\CAMERA.CPP|C:\USERS\210389\ONEDRIVE - 東北電子専門学校\TGS作品\GAME\MYGAMEENGINE\ENGINE\CSVREADER.CPP|C:\USERS\210389\ONEDRIVE - 東北電子専門学校\TGS作品\GAME\MYGAMEENGINE\ENGINE\DIRECT3D.CPP|C:\USERS\210389\ONEDRIVE - 東北電子専門学校\TGS作品\GAME\MYGAMEENGINE\ENGINE\FBX.CPP|C:\USERS\210389\ONEDRIVE - 東北電子専門学校\TGS作品\GAME\MYGAMEENGINE\ENGINE\FBXPARTS.CPP|C:\USERS\210389\ONEDRIVE - 東北電子専門学校\TGS作品\GAME\MYGAMEENGINE\ENGINE\INPUT.CPP|C:\USERS\210389\ONEDRIVE - 東北電子専門学校\TGS作品\GAME\MYGAMEENGINE\ENGINE\QUAD.CPP|C:\USERS\210389\ONEDRIVE - 東北電子専門学校\TGS作品\GAME\MYGAMEENGINE\ENGINE\ROOTJOB.CPP|C:\USERS\210389\ONEDRIVE - 東北電子専門学校\TGS作品\GAME\MYGAMEENGINE\ENGINE\TEXTURE.CPP|C:\USERS\210389\ONEDRIVE - 東北電子専門学校\TGS作品\GAME\MYGAMEENGINE\ENGINE\TRANSFORM.CPP|C:\USERS\210389\ONEDRIVE - 東北電子専門学校\TGS作品\GAME\MYGAMEENGINE\GAMEOBJECT.CPP|C:\USERS\210389\ONEDRIVE - 東北電子専門学校\TGS作品\GAME\MYGAMEENGINE\MAIN.CPP|C:\USERS\210389\ONEDRIVE - 東北電子専門学校\TGS作品\GAME\MYGAMEENGINE\MODEL.CPP|C:\USERS\210389\ONEDRIVE - 東北電子専門学校\TGS作品\GAME\MYGAMEENGINE\PLAYER.CPP|C:\USERS\210389\ONEDRIVE - 東北電子専門学校\TGS作品\GAME\MYGAMEENGINE\PLAYSCENE.CPP|C:\USERS\210389\ONEDRIVE - 東北電子専門学校\TGS作品\GAME\MYGAMEENGINE\SHADOW.CPP|C:\USERS\210389\ONEDRIVE - 東北電子専門学校\TGS作品\GAME\MYGAMEENGINE\STAGE.CPP
C:\USERS\210389\ONEDRIVE - 東北電子専門学校\TGS作品\GAME\MYGAMEENGINE\X64\DEBUG\VC142.PDB
C:\USERS\210389\ONEDRIVE - 東北電子専門学校\TGS作品\GAME\MYGAMEENGINE\X64\DEBUG\VC142.IDB
C:\USERS\210389\ONEDRIVE - 東北電子専門学校\TGS作品\GAME\MYGAMEENGINE\X64\DEBUG\STAGE.OBJ
C:\USERS\210389\ONEDRIVE - 東北電子専門学校\TGS作品\GAME\MYGAMEENGINE\X64\DEBUG\SHADOW.OBJ
C:\USERS\210389\ONEDRIVE - 東北電子専門学校\TGS作品\GAME\MYGAMEENGINE\X64\DEBUG\PLAYSCENE.OBJ
C:\USERS\210389\ONEDRIVE - 東北電子専門学校\TGS作品\GAME\MYGAMEENGINE\X64\DEBUG\PLAYER.OBJ
C:\USERS\210389\ONEDRIVE - 東北電子専門学校\TGS作品\GAME\MYGAMEENGINE\X64\DEBUG\MODEL.OBJ
C:\USERS\210389\ONEDRIVE - 東北電子専門学校\TGS作品\GAME\MYGAMEENGINE\X64\DEBUG\MAIN.OBJ
C:\USERS\210389\ONEDRIVE - 東北電子専門学校\TGS作品\GAME\MYGAMEENGINE\X64\DEBUG\GAMEOBJECT.OBJ
C:\USERS\210389\ONEDRIVE - 東北電子専門学校\TGS作品\GAME\MYGAMEENGINE\X64\DEBUG\TRANSFORM.OBJ
C:\USERS\210389\ONEDRIVE - 東北電子専門学校\TGS作品\GAME\MYGAMEENGINE\X64\DEBUG\TEXTURE.OBJ
C:\USERS\210389\ONEDRIVE - 東北電子専門学校\TGS作品\GAME\MYGAMEENGINE\X64\DEBUG\ROOTJOB.OBJ
C:\USERS\210389\ONEDRIVE - 東北電子専門学校\TGS作品\GAME\MYGAMEENGINE\X64\DEBUG\QUAD.OBJ
C:\USERS\210389\ONEDRIVE - 東北電子専門学校\TGS作品\GAME\MYGAMEENGINE\X64\DEBUG\INPUT.OBJ
C:\USERS\210389\ONEDRIVE - 東北電子専門学校\TGS作品\GAME\MYGAMEENGINE\X64\DEBUG\FBXPARTS.OBJ
C:\USERS\210389\ONEDRIVE - 東北電子専門学校\TGS作品\GAME\MYGAMEENGINE\X64\DEBUG\FBX.OBJ
C:\USERS\210389\ONEDRIVE - 東北電子専門学校\TGS作品\GAME\MYGAMEENGINE\X64\DEBUG\DIRECT3D.OBJ
C:\USERS\210389\ONEDRIVE - 東北電子専門学校\TGS作品\GAME\MYGAMEENGINE\X64\DEBUG\CSVREADER.OBJ
C:\USERS\210389\ONEDRIVE - 東北電子専門学校\TGS作品\GAME\MYGAMEENGINE\X64\DEBUG\CAMERA.OBJ
C:\USERS\210389\ONEDRIVE - 東北電子専門学校\TGS作品\GAME\MYGAMEENGINE\X64\DEBUG\ENEMY.OBJ
C:\USERS\210389\ONEDRIVE - 東北電子専門学校\TGS作品\GAME\MYGAMEENGINE\X64\DEBUG\COLLIDER.OBJ
^C:\USERS\210389\ONEDRIVE - 東北電子専門学校\TGS作品\GAME\MYGAMEENGINE\COLLIDER.CPP
C:\USERS\210389\ONEDRIVE - 東北電子専門学校\TGS作品\GAME\MYGAMEENGINE\X64\DEBUG\VC142.PDB
^C:\USERS\210389\ONEDRIVE - 東北電子専門学校\TGS作品\GAME\MYGAMEENGINE\ENEMY.CPP
C:\USERS\210389\ONEDRIVE - 東北電子専門学校\TGS作品\GAME\MYGAMEENGINE\X64\DEBUG\VC142.PDB
^C:\USERS\210389\ONEDRIVE - 東北電子専門学校\TGS作品\GAME\MYGAMEENGINE\ENGINE\CSVREADER.CPP
C:\USERS\210389\ONEDRIVE - 東北電子専門学校\TGS作品\GAME\MYGAMEENGINE\X64\DEBUG\VC142.PDB
^C:\USERS\210389\ONEDRIVE - 東北電子専門学校\TGS作品\GAME\MYGAMEENGINE\ENGINE\DIRECT3D.CPP
C:\USERS\210389\ONEDRIVE - 東北電子専門学校\TGS作品\GAME\MYGAMEENGINE\X64\DEBUG\VC142.PDB
^C:\USERS\210389\ONEDRIVE - 東北電子専門学校\TGS作品\GAME\MYGAMEENGINE\ENGINE\FBX.CPP
C:\USERS\210389\ONEDRIVE - 東北電子専門学校\TGS作品\GAME\MYGAMEENGINE\X64\DEBUG\VC142.PDB
^C:\USERS\210389\ONEDRIVE - 東北電子専門学校\TGS作品\GAME\MYGAMEENGINE\ENGINE\FBXPARTS.CPP
C:\USERS\210389\ONEDRIVE - 東北電子専門学校\TGS作品\GAME\MYGAMEENGINE\X64\DEBUG\VC142.PDB
^C:\USERS\210389\ONEDRIVE - 東北電子専門学校\TGS作品\GAME\MYGAMEENGINE\ENGINE\INPUT.CPP
C:\USERS\210389\ONEDRIVE - 東北電子専門学校\TGS作品\GAME\MYGAMEENGINE\X64\DEBUG\VC142.PDB
^C:\USERS\210389\ONEDRIVE - 東北電子専門学校\TGS作品\GAME\MYGAMEENGINE\ENGINE\QUAD.CPP
C:\USERS\210389\ONEDRIVE - 東北電子専門学校\TGS作品\GAME\MYGAMEENGINE\X64\DEBUG\VC142.PDB
^C:\USERS\210389\ONEDRIVE - 東北電子専門学校\TGS作品\GAME\MYGAMEENGINE\ENGINE\ROOTJOB.CPP
C:\USERS\210389\ONEDRIVE - 東北電子専門学校\TGS作品\GAME\MYGAMEENGINE\X64\DEBUG\VC142.PDB
^C:\USERS\210389\ONEDRIVE - 東北電子専門学校\TGS作品\GAME\MYGAMEENGINE\ENGINE\TEXTURE.CPP
C:\USERS\210389\ONEDRIVE - 東北電子専門学校\TGS作品\GAME\MYGAMEENGINE\X64\DEBUG\VC142.PDB
^C:\USERS\210389\ONEDRIVE - 東北電子専門学校\TGS作品\GAME\MYGAMEENGINE\ENGINE\TRANSFORM.CPP
C:\USERS\210389\ONEDRIVE - 東北電子専門学校\TGS作品\GAME\MYGAMEENGINE\X64\DEBUG\VC142.PDB
^C:\USERS\210389\ONEDRIVE - 東北電子専門学校\TGS作品\GAME\MYGAMEENGINE\GAMEOBJECT.CPP
C:\USERS\210389\ONEDRIVE - 東北電子専門学校\TGS作品\GAME\MYGAMEENGINE\X64\DEBUG\VC142.PDB
^C:\USERS\210389\ONEDRIVE - 東北電子専門学校\TGS作品\GAME\MYGAMEENGINE\MAIN.CPP
C:\USERS\210389\ONEDRIVE - 東北電子専門学校\TGS作品\GAME\MYGAMEENGINE\X64\DEBUG\VC142.PDB
^C:\USERS\210389\ONEDRIVE - 東北電子専門学校\TGS作品\GAME\MYGAMEENGINE\MODEL.CPP
C:\USERS\210389\ONEDRIVE - 東北電子専門学校\TGS作品\GAME\MYGAMEENGINE\X64\DEBUG\VC142.PDB
^C:\USERS\210389\ONEDRIVE - 東北電子専門学校\TGS作品\GAME\MYGAMEENGINE\ENGINE\CAMERA.CPP|C:\USERS\210389\ONEDRIVE - 東北電子専門学校\TGS作品\GAME\MYGAMEENGINE\STAGE.CPP
C:\USERS\210389\ONEDRIVE - 東北電子専門学校\TGS作品\GAME\MYGAMEENGINE\X64\DEBUG\VC142.PDB
C:\USERS\210389\ONEDRIVE - 東北電子専門学校\TGS作品\GAME\MYGAMEENGINE\X64\DEBUG\VC142.IDB
C:\USERS\210389\ONEDRIVE - 東北電子専門学校\TGS作品\GAME\MYGAMEENGINE\X64\DEBUG\STAGE.OBJ
C:\USERS\210389\ONEDRIVE - 東北電子専門学校\TGS作品\GAME\MYGAMEENGINE\X64\DEBUG\CAMERA.OBJ
^C:\USERS\210389\ONEDRIVE - 東北電子専門学校\TGS作品\GAME\MYGAMEENGINE\ENGINE\CAMERA.CPP
C:\USERS\210389\ONEDRIVE - 東北電子専門学校\TGS作品\GAME\MYGAMEENGINE\X64\DEBUG\VC142.PDB
^C:\USERS\210389\ONEDRIVE - 東北電子専門学校\TGS作品\GAME\MYGAMEENGINE\PLAYER.CPP|C:\USERS\210389\ONEDRIVE - 東北電子専門学校\TGS作品\GAME\MYGAMEENGINE\PLAYSCENE.CPP|C:\USERS\210389\ONEDRIVE - 東北電子専門学校\TGS作品\GAME\MYGAMEENGINE\SHADOW.CPP|C:\USERS\210389\ONEDRIVE - 東北電子専門学校\TGS作品\GAME\MYGAMEENGINE\STAGE.CPP
C:\USERS\210389\ONEDRIVE - 東北電子専門学校\TGS作品\GAME\MYGAMEENGINE\X64\DEBUG\VC142.PDB
C:\USERS\210389\ONEDRIVE - 東北電子専門学校\TGS作品\GAME\MYGAMEENGINE\X64\DEBUG\VC142.IDB
C:\USERS\210389\ONEDRIVE - 東北電子専門学校\TGS作品\GAME\MYGAMEENGINE\X64\DEBUG\STAGE.OBJ
C:\USERS\210389\ONEDRIVE - 東北電子専門学校\TGS作品\GAME\MYGAMEENGINE\X64\DEBUG\SHADOW.OBJ
C:\USERS\210389\ONEDRIVE - 東北電子専門学校\TGS作品\GAME\MYGAMEENGINE\X64\DEBUG\PLAYER.OBJ
C:\USERS\210389\ONEDRIVE - 東北電子専門学校\TGS作品\GAME\MYGAMEENGINE\X64\DEBUG\PLAYSCENE.OBJ
^C:\USERS\210389\ONEDRIVE - 東北電子専門学校\TGS作品\GAME\MYGAMEENGINE\PLAYSCENE.CPP
C:\USERS\210389\ONEDRIVE - 東北電子専門学校\TGS作品\GAME\MYGAMEENGINE\X64\DEBUG\VC142.PDB
^C:\USERS\210389\ONEDRIVE - 東北電子専門学校\TGS作品\GAME\MYGAMEENGINE\PLAYER.CPP
C:\USERS\210389\ONEDRIVE - 東北電子専門学校\TGS作品\GAME\MYGAMEENGINE\X64\DEBUG\VC142.PDB
^C:\USERS\210389\ONEDRIVE - 東北電子専門学校\TGS作品\GAME\MYGAMEENGINE\SHADOW.CPP
C:\USERS\210389\ONEDRIVE - 東北電子専門学校\TGS作品\GAME\MYGAMEENGINE\X64\DEBUG\VC142.PDB
^C:\USERS\210389\ONEDRIVE - 東北電子専門学校\TGS作品\GAME\MYGAMEENGINE\STAGE.CPP
C:\USERS\210389\ONEDRIVE - 東北電子専門学校\TGS作品\GAME\MYGAMEENGINE\X64\DEBUG\VC142.PDB
C:\USERS\210389\ONEDRIVE - 東北電子専門学校\TGS作品\GAME\MYGAMEENGINE\X64\DEBUG\VC142.IDB
C:\USERS\210389\ONEDRIVE - 東北電子専門学校\TGS作品\GAME\MYGAMEENGINE\X64\DEBUG\STAGE.OBJ
